{
    "general":[
        {
            "rule_id":0,
            "detail":"工作日白班A角与白班B角不能为同一人",
            "type":"workday",
            "execute":"delete worker_id="
        },
        {
            "rule_id":1,
            "detail":"工作日白班A角与中班不能为同一人",
            "type":"workday"
        },
        {
            "rule_id":2,
            "detail":"工作日白班B角与中班不能为同一人",
            "type":"workday"
        },
        {
            "rule_id":3,
            "detail":"工作日白班B角与中班不能为同一人",
            "type":"workday"
        },
        {
            "rule_id":4,
            "detail":"工作日晚班待岗与白班A角为同一人",
            "type":"workday"
        },
        {
            "rule_id":5,
            "detail":"非工作日白班A角与晚班为同一人",
            "type":"holiday"
        },
        {
            "rule_id":6,
            "detail":"非工作日白班A角与晚班为同一人",
            "type":"holiday"
        },
        {
            "rule_id":7,
            "detail":"周六值班周二不值班",
            "type":"workday"
        },
        {
            "rule_id":8,
            "detail":"周日值班周一不值班",
            "type":"workday"
        },
        {
            "rule_id":9,
            "detail":"周五值班周三不值班",
            "type":"workday"
        },
        {
            "rule_id":10,
            "detail":"昨日晚班次日不值班",
            "type":"workday,holiday"
        }

    ]
}